<?xml version="1.0" encoding="utf-8"?>
<!-- Generator: Adobe Illustrator 22.0.1, SVG Export Plug-In . SVG Version: 6.00 Build 0)  -->
<svg version="1.1" id="Layer_1" xmlns="http://www.w3.org/2000/svg" xmlns:xlink="http://www.w3.org/1999/xlink" x="0px" y="0px"
	 viewBox="0 0 150 150" style="enable-background:new 0 0 150 150;" xml:space="preserve">
<style type="text/css">
	.st0{fill:#4B87FF;}
	.st1{fill:#A5DAFF;}
</style>
<path class="st0" d="M27.2,47v75.6c0,1.5-1.3,2.7-3,2.7H3c-1.7,0-3-1.2-3-2.7V47c0-1.5,1.3-2.7,3-2.7h21.2
	C25.8,44.3,27.2,45.5,27.2,47z"/>
<path class="st0" d="M104.4,76.7v47c0,0.9-1.3,1.7-3,1.7H80.2c-1.7,0-3-0.7-3-1.7v-47c0-0.9,1.3-1.7,3-1.7h21.2
	C103,75,104.4,75.7,104.4,76.7z"/>
<path class="st1" d="M65.8,27.5v95.1c0,1.5-1.3,2.7-3,2.7H41.6c-1.7,0-3-1.2-3-2.7V27.5c0-1.5,1.3-2.7,3-2.7h21.2
	C64.5,24.7,65.8,26,65.8,27.5z"/>
</svg>
