<?xml version="1.0" encoding="utf-8"?>
<!-- Generator: Adobe Illustrator 21.1.0, SVG Export Plug-In . SVG Version: 6.00 Build 0)  -->
<svg version="1.1" id="Layer_1" xmlns="http://www.w3.org/2000/svg" xmlns:xlink="http://www.w3.org/1999/xlink" x="0px" y="0px"
	 viewBox="0 0 150 150" style="enable-background:new 0 0 150 150;" xml:space="preserve">
<style type="text/css">
	.st0{fill:#A5DAFF;}
	.st1{fill:#4B87FF;}
</style>
<path class="st0" d="M106.7,57.2c-8.8-15.8-28.5-21.8-44.6-14l-4.4-7.9c-1.7-3.1-5.9-3.4-7.2,1l-5.4,19.2c-0.7,2.5,0.8,5.2,3.3,5.9
	l19.2,5.4c4.6,1.3,6.7-1.8,4.9-5l-4-7.1c9.7-4.3,21.3-0.6,26.6,8.9c5.6,10,2,22.7-8,28.3c-9.5,5.3-21.4,2.3-27.4-6.5
	c-0.5-0.7-1.7-1.1-2.5-0.7L49,89.5c-0.9,0.5-1.4,1.6-0.7,2.6c9.6,15.1,29.5,20.2,45.3,11.4C110,94.4,115.8,73.6,106.7,57.2z"/>
<g>
	<path class="st1" d="M45.8,70.5c-3.7-1-6.7-3.4-8.5-6.7C35.4,60.5,35,56.7,36,53l5.4-19.2c0.3-1.2,0.8-2.2,1.4-3.3H3.8
		c-2.1,0-3.8,1.7-3.8,3.8v78c0,2.1,1.7,3.8,3.8,3.8H60c1.1,0,2-0.4,2.7-1.1c-9.2-3.2-17.1-9.3-22.4-17.7c-1.7-2.7-2.2-5.8-1.4-8.8
		c0.8-3,2.8-5.6,5.5-7.1l8.3-4.6c1.6-0.9,3.5-1.4,5.4-1.4c0.1,0,0.2,0,0.3,0v-1.2L45.8,70.5z"/>
</g>
</svg>
