<?xml version="1.0" encoding="utf-8"?>
<!-- Generator: Adobe Illustrator 16.0.0, SVG Export Plug-In . SVG Version: 6.00 Build 0)  -->
<!DOCTYPE svg PUBLIC "-//W3C//DTD SVG 1.1//EN" "http://www.w3.org/Graphics/SVG/1.1/DTD/svg11.dtd">
<svg version="1.1" id="Layer_1" xmlns="http://www.w3.org/2000/svg" xmlns:xlink="http://www.w3.org/1999/xlink" x="0px" y="0px"
	 width="100px" height="100px" viewBox="0 0 100 100" enable-background="new 0 0 100 100" xml:space="preserve">
<g>
	<polygon fill="#141828" points="95.603,95.06 65.362,95.06 29.575,4.062 59.813,4.062 	"/>
	<path fill="#141828" d="M0,80.102c0,8.746,7.089,15.837,15.835,15.837c6.736,0,12.367-4.283,15.497-11.945
		c0.737-1.808,6.58-17.585,7.32-19.683c-2.39,0-13.309-0.046-22.056-0.046C7.022,64.265,0,71.357,0,80.102z"/>
</g>
</svg>
