<?xml version="1.0" encoding="utf-8"?>
<!-- Generator: Adobe Illustrator 21.1.0, SVG Export Plug-In . SVG Version: 6.00 Build 0)  -->
<svg version="1.1" id="Layer_1" xmlns="http://www.w3.org/2000/svg" xmlns:xlink="http://www.w3.org/1999/xlink" x="0px" y="0px"
	 viewBox="0 0 250 170" style="enable-background:new 0 0 250 170;" xml:space="preserve">
<style type="text/css">
	.st0{fill:#BDC1D1;}
	.st1{fill:#8A8EAA;}
</style>
<g>
	<path class="st0" d="M108.5,140.7H106l-6.7,14.9h2.6c1.8-6.4,9.5-5.8,10.9,0h2.5L108.5,140.7z M104.3,149.8l2.9-7.2l2.9,7.2
		C108.6,148.8,106.1,148.9,104.3,149.8"/>
	<polygon class="st0" points="130.3,142.8 130.3,140.8 119.6,140.8 119.6,155.6 130.3,155.6 130.3,153.7 121.7,153.7 121.7,149.2 
		129.4,149.2 129.4,147.2 121.7,147.2 121.7,142.8 	"/>
	<path class="st0" d="M143.8,149.6c2.1-0.4,3.7-1.9,3.7-4.2c0.1-2.7-2-4.6-5.5-4.6h-6.4v14.8h2V150h3.8l4.3,5.6h2.6L143.8,149.6z
		 M137.7,148.1v-5.2h4.3c1.8,0,3.3,0.8,3.3,2.4c0,1.6-1.1,2.8-3.3,2.8H137.7z"/>
	<path class="st0" d="M213.1,149.6c2.1-0.4,3.7-1.9,3.7-4.2c0.1-2.7-2-4.6-5.5-4.6h-6.4v14.8h2V150h3.8l4.3,5.6h2.6L213.1,149.6z
		 M206.9,148.1v-5.2h4.3c1.8,0,3.3,0.8,3.3,2.4c0,1.6-1.1,2.8-3.3,2.8H206.9z"/>
	<polygon class="st0" points="126.1,136.4 128.6,136.4 126.1,138.9 123.6,138.9 	"/>
	<path class="st0" d="M158.6,140.6c-4.2,0-7.6,3.4-7.6,7.6c0,4.2,3.4,7.6,7.6,7.6c4.2,0,7.6-3.4,7.6-7.6
		C166.2,144,162.8,140.6,158.6,140.6 M158.6,153.7c-3,0-5.5-2.5-5.5-5.5c0-3,2.5-5.5,5.5-5.5c3,0,5.5,2.5,5.5,5.5
		C164.1,151.2,161.6,153.7,158.6,153.7"/>
	<path class="st0" d="M192.8,140.6c-4.2,0-7.6,3.4-7.6,7.6c0,4.2,3.4,7.6,7.6,7.6c4.2,0,7.6-3.4,7.6-7.6
		C200.4,144,197,140.6,192.8,140.6 M192.8,153.7c-3,0-5.5-2.5-5.5-5.5c0-3,2.5-5.5,5.5-5.5s5.5,2.5,5.5,5.5
		C198.3,151.2,195.8,153.7,192.8,153.7"/>
	<path class="st0" d="M176.7,140.8l-6,0l0,14.8h2.1v-5.1h3.8c3.4,0,5.5-2,5.4-5C181.9,142.7,179.8,140.8,176.7,140.8 M176.2,148.6
		h-3.4v-5.8l3.5,0c2.2,0,3.4,1.1,3.4,2.9C179.8,146.6,179.2,148.5,176.2,148.6"/>
	<polygon class="st0" points="232,140.8 220.1,140.8 220.1,142.8 225,142.8 225,155.6 227.1,155.6 227.1,142.8 232,142.8 	"/>
	<path class="st1" d="M24,140.8h-6.1v14.7h3.1V151h3.2c3.2,0,5.6-2.1,5.6-5.1C29.9,143,27.7,140.8,24,140.8 M23.8,148.4h-2.7v-4.9
		H24c2.4,0,2.7,1.8,2.7,2.4C26.7,147.7,25.2,148.4,23.8,148.4"/>
	<path class="st1" d="M67.1,155.6l-4.2-5.4c1.9-0.8,3.3-2.3,3.3-4.4c0-3.3-2.2-4.9-6.1-4.9l-6.3,0v14.7h3.1v-4.9h2.8l3.6,4.9H67.1z
		 M56.8,143.5H60c2,0,2.9,0.9,2.9,2.2c0,1.6-1.2,2.3-2.9,2.3l-3.2,0V143.5z"/>
	<rect x="72.7" y="140.8" class="st1" width="3.2" height="14.7"/>
	<path class="st1" d="M42.4,140.7h-3.7l-6.4,14.9h3.3c1.9-5.4,8.4-4.6,9.9,0h3.4L42.4,140.7z M37.8,150.3l2.9-7.1l2.7,7.1
		C41.7,149.3,39.5,149.4,37.8,150.3"/>
	<path class="st1" d="M93,142.3l-1.5,2.3c-2.3-1.7-5.7-1.6-5.9,0c-0.1,1.2,1,1.7,3.3,2.3c3.5,0.9,5.1,2.4,4.5,5.3
		c-0.5,2.2-2.1,3.1-4.5,3.5c-2.4,0.3-4.9-0.4-6.9-2.1l1.9-2.2c1.7,1.9,6.3,2.4,6.5,0.3c0.1-1.3-1.4-1.9-3.8-2.5
		c-2.9-0.7-4.4-2.4-4.2-4.6c0.3-3,2.8-4,5.7-4C90,140.6,91.6,141.4,93,142.3"/>
	<rect x="123.9" y="13.9" class="st1" width="2.1" height="101"/>
	<polygon class="st1" points="142,118.6 140.1,117.7 148,90.7 149.8,92.2 	"/>
	<polygon class="st1" points="146.6,121.1 144.7,120 152.7,99.3 154.3,101 	"/>
	<polygon class="st1" points="150.7,124.1 149,122.8 157.2,106.1 158.8,107.7 	"/>
	<polygon class="st1" points="154.2,127.7 152.7,126 161.6,112 163.1,113.6 	"/>
	<polygon class="st1" points="137.1,116.8 135,116.2 142.6,77.8 144.5,79.2 	"/>
	<polygon class="st1" points="131.7,115.5 129.6,115.2 135.8,50 137.8,51.3 	"/>
	<polygon class="st1" points="107.9,118.6 109.9,117.7 101.9,90.7 100.1,92.2 	"/>
	<polygon class="st1" points="103.4,121.1 105.3,120 97.2,99.3 95.6,101 	"/>
	<polygon class="st1" points="99.2,124.1 101,122.8 92.7,106.1 91.1,107.7 	"/>
	<polygon class="st1" points="95.7,127.7 97.2,126 88.4,112 86.8,113.6 	"/>
	<polygon class="st1" points="112.9,116.8 114.9,116.2 107.4,77.8 105.5,79.2 	"/>
	<polygon class="st1" points="118.3,115.5 120.4,115.2 114.1,50 112.1,51.3 	"/>
</g>
</svg>
