<?xml version="1.0" encoding="utf-8"?>
<!-- Generator: Adobe Illustrator 21.1.0, SVG Export Plug-In . SVG Version: 6.00 Build 0)  -->
<svg version="1.1" id="Layer_1" xmlns="http://www.w3.org/2000/svg" xmlns:xlink="http://www.w3.org/1999/xlink" x="0px" y="0px"
	 viewBox="0 0 250 120" style="enable-background:new 0 0 250 120;" xml:space="preserve">
<style type="text/css">
	.st0{fill:#8A8EAA;}
	.st1{fill:#BDC1D1;}
</style>
<g>
	<path class="st0" d="M76.6,66.8L56.4,46.7l20.1-20.2c3.3-3.3,2.5-8.6-0.8-11.9c-3.3-3.3-8.6-3.3-11.9,0L44.1,34.3L24.7,14.9
		c-3.5-4-9.5-3.3-12.5-0.4c-3.3,3.3-3.7,9-0.4,12.3l19.8,19.8L12,66.1c-3.3,3.3-3.4,9.2,0.1,12.3c3.3,3.5,9,3.4,12.3,0.3L44,59.1
		l19.2,19.2c3.3,3.3,8.5,4.4,12.9,0.5C79.4,75.4,79.9,70.1,76.6,66.8z"/>
	<polygon class="st1" points="147.9,61 154.5,67.2 165.5,63.6 151,60.1 	"/>
	<path class="st1" d="M153.7,69.6l27.8-8.7l-18-14.5l6.3-2.1c0,0,30.3,11.1,31,11c2-0.4,9.6-2.8,12.3-3.4c11.1-3,14.3-3,18-1.9
		c1.5,0.4,3.5,1,5.6,1.8c2.4,0.9,4.7,2.8,3.3,4.4c-2.7,3-26.2,8.7-26.2,8.7s-33.1,8.7-39.9,9.1c-2.1,0.1-19.5-1.8-19.5-1.8
		L153.7,69.6z"/>
	<path class="st0" d="M126.8,63.6h-18.6c0,0-1,0.3-2.9-0.5c-0.6-0.3-1.6-0.9-2-2.1c-0.4-1-0.5-1.6-0.5-2.4c0-5.4-0.1-37.2-0.1-37.2
		c0-4.9-3.5-9.1-8.6-9.1c-4.9,0-9.1,4-9.1,9.1c0,0,0,35.4,0,37.2c0,2.9,1.4,7.7,2.5,10.4c0.8,1.5,1.6,3.2,2.8,4.4
		c1.5,1.8,2.3,3,7.1,5.8c4.3,2.5,10.7,2.1,10.7,2.1l18.5,0.1c5.1-0.1,9.4-4.3,9.4-9.4C135.8,67,131.9,63.6,126.8,63.6z M126.4,76.4
		c-2.2,0-4-1.8-4-4c0-2.2,1.8-4,4-4c2.2,0,4,1.8,4,4C130.5,74.6,128.7,76.4,126.4,76.4z"/>
	<polygon class="st0" points="123.5,86.4 129.2,86.4 129.2,106.9 123.5,107 	"/>
	<path class="st0" d="M134,86.4h5.9V90c0,0,2.4-5.2,6.4-4v6.2c0,0-3.7-0.8-5.3,2.4c-0.9,1.6-0.9,2.9-0.9,2.9l-0.1,9.5l-6.2,0.3V86.4
		H134L134,86.4z"/>
	<polygon class="st0" points="148.4,86.2 154.5,86.2 157.9,98.5 161.6,86 166.6,86 170.7,98.5 174,86 179.9,86 173.6,107.2 
		167.9,107.2 164.1,94.5 160.2,107.2 154.8,107.2 	"/>
	<path class="st0" d="M113.9,86.8c-4.5-1.1-9-0.5-12.3,1.4l2.3,3.8c0,0,2.9-1.1,3.8-1.3c0.9-0.1,2.9-0.3,3.7,0.3
		c0.9,0.5,1.5,1,1.5,3c0,0-4-1.4-8.1-0.3c-0.8,0.3-4.6,1.5-4.8,6.6c-0.3,5.8,7.1,6.7,7.1,6.7s4.5,0.3,5.8-1.5v1.4h5.8V92.4
		C118.7,92.4,118.6,87.9,113.9,86.8z M112.7,100.9c0,0,0.1,1.4-2.8,1.6c-2.5,0.3-3.4-0.5-3.7-1.4c-0.3-0.9-0.3-2.3,0.5-2.8
		c1-0.8,2.8-0.9,3.8-0.8c1,0,1.6,0.1,2,0.6C112.9,98.8,112.7,100.9,112.7,100.9z"/>
	<path class="st0" d="M195,86.8c-4.7-1.1-9-0.5-12.3,1.4l2.3,3.8c0,0,2.9-1.1,3.8-1.3c0.9-0.1,2.9-0.3,3.7,0.3c0.9,0.5,1.5,1,1.5,3
		c0,0-4-1.4-8.1-0.3c-0.8,0.3-4.5,1.5-4.8,6.6c-0.3,5.8,7.1,6.7,7.1,6.7s4.6,0.3,5.8-1.5v1.4h5.8V92.4
		C199.8,92.4,199.6,87.9,195,86.8z M193.7,100.9c0,0,0.1,1.4-2.8,1.6c-2.5,0.3-3.4-0.5-3.7-1.4c-0.3-0.9-0.3-2.3,0.5-2.8
		c1-0.8,2.8-0.9,3.8-0.8c0.9,0,1.6,0.1,2,0.6C193.9,98.8,193.7,100.9,193.7,100.9z"/>
	<path class="st0" d="M201.4,86.1h6.3l4.6,13.8l4.5-13.8h6.2l-8.7,22.8c0,0-1.4,4-5.2,4.3c-3.9,0.3-6.2-1.6-6.2-1.6l2.3-4.4
		c0,0,1.4,1,2.5,0.9c1.1-0.1,1.9-0.6,1.9-1.3C209.4,106,201.4,86.1,201.4,86.1z"/>
	<path class="st0" d="M239.7,88.4l-2.1,4c0,0-2.9-1.9-4.7-2c-1.8,0-2.8,0.1-2.9,0.9c-0.1,0.8-0.4,1.1,1.1,2c1.5,0.9,3.5,1,5.3,1.8
		c1.8,0.8,4.4,3.3,3.9,5.9c-0.5,2.8-1.6,4.3-2.9,5.2c-1.8,1.3-6.4,1.1-8.6,0.6c-2.3-0.5-5.6-2.7-5.6-2.7l2.7-3.9c0,0,2,1.8,4.5,2.3
		c1.5,0.3,3.5,0.3,3.9-0.5c0.4-0.8,0.5-1.8-1.1-2.4c-1.5-0.5-4.8-1.3-5.7-1.8c-0.9-0.5-3.8-2.3-3.4-5.3c0.4-3.2,1.5-4.6,2.9-5.4
		c1.4-0.8,3.3-1.5,6.1-1.1C235.9,86.1,237.9,86.9,239.7,88.4z"/>
</g>
</svg>
