<?xml version="1.0" encoding="utf-8"?>
<!-- Generator: Adobe Illustrator 16.0.0, SVG Export Plug-In . SVG Version: 6.00 Build 0)  -->
<!DOCTYPE svg PUBLIC "-//W3C//DTD SVG 1.1//EN" "http://www.w3.org/Graphics/SVG/1.1/DTD/svg11.dtd">
<svg version="1.1" id="Layer_1" xmlns="http://www.w3.org/2000/svg" xmlns:xlink="http://www.w3.org/1999/xlink" x="0px" y="0px"
	 width="120px" height="120px" viewBox="0 0 120 120" enable-background="new 0 0 120 120" xml:space="preserve">
<g id="Layer_1_1_" display="none">
	
		<linearGradient id="SVGID_1_" gradientUnits="userSpaceOnUse" x1="-34.0005" y1="5.0005" x2="-34.0005" y2="125.309" gradientTransform="matrix(1 0 0 -1 94 125)">
		<stop  offset="0" style="stop-color:#48ADFF"/>
		<stop  offset="0.2094" style="stop-color:#3484DC"/>
		<stop  offset="0.4514" style="stop-color:#205CBA"/>
		<stop  offset="0.6723" style="stop-color:#123EA1"/>
		<stop  offset="0.8625" style="stop-color:#092C92"/>
		<stop  offset="1" style="stop-color:#06268D"/>
	</linearGradient>
	<path display="inline" fill="url(#SVGID_1_)" d="M120,90c0,16.568-13.432,30-30,30H30c-16.568,0-30-13.432-30-30V30
		C0,13.432,13.432,0,30,0h60c16.568,0,30,13.432,30,30V90z"/>
</g>
<path fill="#2D2F33" d="M40.656,76.995c-18.76,0-34.021-15.262-34.021-34.021S21.896,8.952,40.656,8.952
	s34.022,15.262,34.022,34.021c0,0.104-0.004,0.206-0.008,0.308l-0.006,0.188l-1.299-0.023l0.012-0.473
	c0-18.043-14.679-32.722-32.722-32.722S7.935,24.931,7.935,42.974c0,18.042,14.679,32.721,32.722,32.721
	c1.82,0,3.681-0.159,5.533-0.475l0.218,1.281C44.484,76.829,42.549,76.995,40.656,76.995z"/>
<path fill="#2D2F33" d="M79.657,110.367c-18.76,0-34.021-15.263-34.021-34.022c0-0.1,0.003-0.199,0.007-0.299l0.005-0.195l1.3,0.02
	l-0.012,0.475c0,18.043,14.679,32.722,32.722,32.722s32.722-14.679,32.722-32.722c0-18.042-14.679-32.721-32.722-32.721
	c-1.82,0-3.682,0.16-5.532,0.476l-0.219-1.281c1.922-0.328,3.857-0.494,5.751-0.494c18.76,0,34.022,15.262,34.022,34.021
	C113.68,95.104,98.417,110.367,79.657,110.367z"/>
<g>
	<path fill="#2D2F33" d="M74.576,45.61l-1.297-0.096c0.029-0.387,0.051-0.776,0.065-1.167c-0.383,0.075-0.764,0.157-1.143,0.245
		l-0.295-1.266c0.659-0.154,1.326-0.289,1.999-0.403l0.771-0.131l-0.011,0.781C74.655,44.257,74.626,44.937,74.576,45.61z"/>
	<path fill="#2D2F33" d="M47.354,71.252l-1.284-0.205c0.201-1.257,0.476-2.515,0.816-3.737l1.252,0.348
		C47.812,68.834,47.547,70.043,47.354,71.252z M48.991,65.034l-1.219-0.453c0.442-1.189,0.959-2.368,1.535-3.503l1.159,0.588
		C49.913,62.758,49.417,63.891,48.991,65.034z M51.818,59.261l-1.105-0.685c0.669-1.08,1.406-2.134,2.192-3.134l1.022,0.804
		C53.17,57.208,52.461,58.222,51.818,59.261z M55.723,54.15l-0.951-0.887c0.866-0.929,1.795-1.82,2.761-2.648l0.846,0.987
		C57.449,52.399,56.556,53.256,55.723,54.15z M60.549,49.896l-0.76-1.055c1.035-0.745,2.12-1.438,3.225-2.059l0.637,1.133
		C62.587,48.513,61.543,49.179,60.549,49.896z M66.111,46.666l-0.539-1.184c1.158-0.527,2.359-0.994,3.568-1.386l0.402,1.236
		C68.38,45.709,67.225,46.158,66.111,46.666z"/>
	<path fill="#2D2F33" d="M45.637,76.736l0.011-0.781c0.01-0.684,0.04-1.363,0.089-2.037l1.297,0.096
		c-0.029,0.388-0.051,0.776-0.065,1.168c0.383-0.075,0.764-0.156,1.142-0.245l0.296,1.266c-0.659,0.154-1.326,0.289-2,0.403
		L45.637,76.736z"/>
	<path fill="#2D2F33" d="M51.173,75.433l-0.401-1.236c1.162-0.377,2.316-0.826,3.43-1.334l0.539,1.184
		C53.582,74.574,52.382,75.04,51.173,75.433z M57.301,72.746l-0.637-1.133c1.065-0.599,2.109-1.266,3.102-1.98l0.759,1.055
		C59.493,71.431,58.408,72.124,57.301,72.746z M62.781,68.913l-0.846-0.988c0.931-0.796,1.823-1.653,2.655-2.546l0.951,0.885
		C64.678,67.193,63.748,68.084,62.781,68.913z M67.408,64.086l-1.021-0.805c0.754-0.958,1.463-1.972,2.107-3.013l1.105,0.684
		C68.93,62.035,68.192,63.089,67.408,64.086z M71.006,58.45l-1.16-0.588c0.552-1.087,1.049-2.221,1.477-3.368l1.219,0.454
		C72.096,56.141,71.579,57.319,71.006,58.45z M73.427,52.219l-1.252-0.349c0.326-1.174,0.591-2.383,0.784-3.595l1.283,0.205
		C74.041,49.74,73.767,50.998,73.427,52.219z"/>
</g>
<path fill="#2D2F33" d="M68.118,108.318c-0.02,0-0.038-0.001-0.058-0.003c-0.357-0.031-0.622-0.346-0.591-0.704
	c0.33-3.793,1.499-16.282,2.7-17.699c1.571-1.853,4.522-1.912,6.894-1.96c1.1-0.021,2.139-0.042,2.771-0.239
	c1.324-0.413,1.504-1.607,1.626-3.382c0.018-0.252,0.035-0.497,0.059-0.729c0.035-0.358,0.359-0.636,0.711-0.582
	c0.357,0.035,0.618,0.354,0.582,0.711c-0.021,0.221-0.038,0.452-0.054,0.69c-0.112,1.613-0.266,3.824-2.537,4.532
	c-0.809,0.253-1.886,0.274-3.133,0.299c-2.22,0.045-4.735,0.096-5.927,1.501c-0.651,0.858-1.73,9.304-2.397,16.972
	C68.735,108.062,68.451,108.318,68.118,108.318z"/>
<path fill="#2D2F33" d="M104.42,99.365c-0.33,0-0.613-0.252-0.646-0.588c-0.256-2.633-0.939-7.14-1.689-8.023
	c-1.191-1.406-3.707-1.457-5.927-1.502c-1.247-0.024-2.324-0.046-3.133-0.299c-2.271-0.708-2.425-2.919-2.537-4.532
	c-0.016-0.238-0.032-0.47-0.054-0.69c-0.036-0.356,0.225-0.676,0.582-0.711c0.347-0.054,0.675,0.224,0.711,0.582
	c0.023,0.232,0.041,0.478,0.059,0.729c0.122,1.774,0.302,2.969,1.626,3.382c0.633,0.197,1.672,0.218,2.771,0.239
	c2.371,0.048,5.322,0.107,6.894,1.961c1.23,1.45,1.874,7.534,1.991,8.739c0.034,0.357-0.228,0.675-0.585,0.709
	C104.462,99.364,104.441,99.365,104.42,99.365z"/>
<path fill="#2D2F33" d="M82.179,84.314c-0.173,0-0.346-0.069-0.474-0.205c-1.411-1.5-2.437-3.671-3.05-6.455
	c-0.746-0.828-1.768-2.941-1.526-4.375c0.082-0.482,0.304-0.876,0.64-1.143c0.007-1.341,0.045-2.373,0.045-2.373
	c0.013-0.358,0.268-0.615,0.674-0.625c0.358,0.013,0.639,0.314,0.625,0.674c0,0.005-0.044,1.205-0.044,2.688v0.432L78.67,73.1
	c-0.066,0.028-0.207,0.088-0.259,0.396c-0.171,1.01,0.762,2.894,1.274,3.354l0.157,0.142l0.044,0.207
	c0.559,2.637,1.488,4.662,2.766,6.02c0.246,0.262,0.233,0.673-0.028,0.919C82.499,84.256,82.339,84.314,82.179,84.314z"/>
<path fill="#2D2F33" d="M91.09,84.325c-0.16,0-0.32-0.06-0.446-0.178c-0.261-0.246-0.272-0.658-0.026-0.919
	c1.283-1.359,2.218-3.389,2.776-6.029l0.044-0.207l0.157-0.142c0.513-0.461,1.445-2.345,1.274-3.354
	c-0.052-0.309-0.192-0.368-0.259-0.396l-0.398-0.167v-0.432c0-1.483-0.045-2.684-0.045-2.688c-0.014-0.358,0.267-0.66,0.625-0.674
	c0.365,0.003,0.661,0.267,0.674,0.625c0,0,0.039,1.032,0.046,2.373c0.336,0.267,0.558,0.66,0.64,1.143
	c0.241,1.434-0.78,3.547-1.526,4.375c-0.614,2.789-1.644,4.964-3.062,6.467C91.435,84.257,91.263,84.325,91.09,84.325z"/>
<path fill="#2D2F33" d="M94.849,71.838c-0.05,0-0.1-0.006-0.149-0.018c-0.293-0.069-0.501-0.331-0.501-0.633
	c0-3.419-1.33-3.89-2.768-3.89c-0.763,0-1.63,0.153-2.469,0.301c-0.837,0.148-1.702,0.302-2.476,0.302
	c-1.009,0-2.007-0.206-2.972-0.405c-0.819-0.169-1.593-0.328-2.245-0.328c-0.818,0-2.188,0-2.188,4.021
	c0,0.296-0.2,0.554-0.485,0.629c-0.285,0.076-0.587-0.052-0.731-0.311c-0.537-0.955-1.619-4.803-0.368-6.811
	c-0.236-1.719,0.919-4.59,1.445-5.467c0.093-0.154,0.245-0.263,0.421-0.301c0.177-0.036,0.36,0,0.508,0.102
	c0.392,0.273,2.539,0.689,4.433,1.057c5.76,1.117,10.229,2.124,11.044,4.034c1.153,2.703,0.674,6.174,0.082,7.358
	C95.318,71.702,95.091,71.838,94.849,71.838z M79.793,60.405c-0.562,1.207-1.226,3.36-0.979,4.266
	c0.055,0.2,0.011,0.415-0.119,0.577c-0.457,0.571-0.537,1.61-0.44,2.654c0.457-1.162,1.338-2.035,3.015-2.035
	c0.785,0,1.622,0.172,2.508,0.354c0.9,0.187,1.833,0.378,2.709,0.378c0.659,0,1.432-0.136,2.25-0.28
	c0.894-0.158,1.817-0.321,2.694-0.321c1.557,0,2.658,0.548,3.318,1.663c-0.021-0.987-0.184-2.062-0.597-3.031
	c-0.609-1.427-6.548-2.579-10.096-3.268C81.97,60.957,80.604,60.685,79.793,60.405z"/>
<path fill="#2D2F33" d="M29.879,61.208l-6.209-6.936l-8.266-4.303l3.101-4.028l6.583,0.55L29,40.528l-11.183-5.955l4.383-5.7
	l15.47-0.57l4.457-5.616c1.105-1.333,3.517-2.702,5.656-2.702c0.837,0,1.541,0.214,2.091,0.637c2.068,1.622,1.333,5.862-0.17,7.93
	l-4.346,5.719l3.28,15.129l-4.436,5.658l-8.539-9.359l-4.811,5.267l2.166,6.243L29.879,61.208z M17.381,49.533l7.179,3.784
	l5.254,5.869l1.743-2.22l-2.186-6.305l6.293-6.889l8.463,9.276l3.112-3.969L43.96,33.962l4.7-6.184
	c1.12-1.542,1.785-5.055,0.416-6.128c-0.313-0.24-0.75-0.364-1.293-0.364c-1.679,0-3.757,1.148-4.646,2.22l-4.82,6.075L22.858,30.15
	l-3.075,3.998l11.084,5.902l-5.116,7.802l-6.649-0.556L17.381,49.533z"/>
</svg>
