<?xml version="1.0" encoding="utf-8"?>
<!-- Generator: Adobe Illustrator 16.0.0, SVG Export Plug-In . SVG Version: 6.00 Build 0)  -->
<!DOCTYPE svg PUBLIC "-//W3C//DTD SVG 1.1//EN" "http://www.w3.org/Graphics/SVG/1.1/DTD/svg11.dtd">
<svg version="1.1" id="Layer_1" xmlns="http://www.w3.org/2000/svg" xmlns:xlink="http://www.w3.org/1999/xlink" x="0px" y="0px"
	 width="120px" height="120px" viewBox="0 0 120 120" enable-background="new 0 0 120 120" xml:space="preserve">
<g id="Layer_1_1_" display="none">
	
		<linearGradient id="SVGID_1_" gradientUnits="userSpaceOnUse" x1="-34.0005" y1="5.0005" x2="-34.0005" y2="125.309" gradientTransform="matrix(1 0 0 -1 94 125)">
		<stop  offset="0" style="stop-color:#48ADFF"/>
		<stop  offset="0.2094" style="stop-color:#3484DC"/>
		<stop  offset="0.4514" style="stop-color:#205CBA"/>
		<stop  offset="0.6723" style="stop-color:#123EA1"/>
		<stop  offset="0.8625" style="stop-color:#092C92"/>
		<stop  offset="1" style="stop-color:#06268D"/>
	</linearGradient>
	<path display="inline" fill="url(#SVGID_1_)" d="M120,90c0,16.568-13.432,30-30,30H30c-16.568,0-30-13.432-30-30V30
		C0,13.432,13.432,0,30,0h60c16.568,0,30,13.432,30,30V90z"/>
</g>
<polygon fill="#2D2F33" points="82.941,102.936 23.391,102.936 23.391,17.064 69.24,17.064 82.941,30.766 82.941,47.25 
	81.641,47.25 81.641,31.304 68.701,18.364 24.691,18.364 24.691,101.635 81.641,101.635 81.641,83.345 82.941,83.345 "/>
<polygon fill="#2D2F33" points="82.291,31.685 68.32,31.685 68.32,17.714 69.621,17.714 69.621,30.385 82.291,30.385 "/>
<path fill="#2D2F33" d="M82.291,83.995c-10.123,0-18.359-8.311-18.359-18.525s8.236-18.525,18.359-18.525s18.359,8.31,18.359,18.525
	S92.414,83.995,82.291,83.995z M82.291,48.245c-9.406,0-17.059,7.727-17.059,17.225s7.652,17.225,17.059,17.225
	S99.35,74.968,99.35,65.47S91.697,48.245,82.291,48.245z"/>
<polygon fill="#2D2F33" points="79.645,74.759 73.573,65.031 74.677,64.344 79.605,72.241 89.313,55.548 90.437,56.202 "/>
</svg>
