<?xml version="1.0" encoding="utf-8"?>
<!-- Generator: Adobe Illustrator 16.0.0, SVG Export Plug-In . SVG Version: 6.00 Build 0)  -->
<!DOCTYPE svg PUBLIC "-//W3C//DTD SVG 1.1//EN" "http://www.w3.org/Graphics/SVG/1.1/DTD/svg11.dtd">
<svg version="1.1" id="Layer_1" xmlns="http://www.w3.org/2000/svg" xmlns:xlink="http://www.w3.org/1999/xlink" x="0px" y="0px"
	 width="120px" height="120px" viewBox="0 0 120 120" enable-background="new 0 0 120 120" xml:space="preserve">
<g id="Layer_1_1_">
	
		<linearGradient id="SVGID_1_" gradientUnits="userSpaceOnUse" x1="-34.0005" y1="4.5" x2="-34.0005" y2="116.0025" gradientTransform="matrix(1 0 0 -1 94 125)">
		<stop  offset="0" style="stop-color:#85C7FA"/>
		<stop  offset="0.1814" style="stop-color:#5A8FFF"/>
		<stop  offset="0.347" style="stop-color:#4265BD"/>
		<stop  offset="0.4931" style="stop-color:#2E4588"/>
		<stop  offset="0.5642" style="stop-color:#273874"/>
		<stop  offset="0.6654" style="stop-color:#222D63"/>
		<stop  offset="0.8802" style="stop-color:#181944"/>
		<stop  offset="1" style="stop-color:#141138"/>
	</linearGradient>
	<circle fill="url(#SVGID_1_)" cx="60" cy="60" r="55.667"/>
</g>
<g id="Layer_2">
	<path fill="#FFFFFF" d="M75.264,60.527H52.833c-1.064,0-1.927-0.863-1.927-1.927s0.862-1.927,1.927-1.927h22.431
		c1.065,0,1.928,0.863,1.928,1.927S76.329,60.527,75.264,60.527z"/>
	<path fill="#FFFFFF" d="M87.594,77.24H52.833c-1.064,0-1.927-0.862-1.927-1.928c0-1.062,0.862-1.927,1.927-1.927h34.761
		c1.064,0,1.928,0.863,1.928,1.927C89.521,76.378,88.658,77.24,87.594,77.24z"/>
	<path fill="#FFFFFF" d="M52.833,77.242c-5.671,0-10.284-4.614-10.284-10.285s4.613-10.284,10.284-10.284
		c1.064,0,1.926,0.863,1.926,1.927c0,1.063-0.862,1.927-1.926,1.927c-3.546,0-6.431,2.885-6.431,6.43
		c0,3.546,2.884,6.432,6.431,6.432c1.064,0,1.926,0.863,1.926,1.928C54.759,76.378,53.897,77.242,52.833,77.242z"/>
	<path fill="#FFFFFF" d="M87.594,77.242c-1.064,0-1.927-0.864-1.927-1.928c0-1.062,0.862-1.926,1.927-1.926
		c4.668,0,8.465-3.798,8.465-8.466c0-4.364-3.4-8.068-7.744-8.434c-1.059-0.089-1.847-1.021-1.758-2.083
		c0.09-1.06,1.018-1.845,2.082-1.757c6.321,0.532,11.272,5.923,11.272,12.273C99.911,71.716,94.387,77.242,87.594,77.242z"/>
	<path fill="#FFFFFF" d="M88.479,56.499c-0.742,0-1.446-0.429-1.765-1.15c-2.056-4.661-6.676-7.672-11.769-7.672
		c-1.523,0-3.012,0.263-4.426,0.782c-1,0.365-2.107-0.146-2.474-1.146c-0.366-0.999,0.146-2.106,1.146-2.472
		c1.841-0.675,3.775-1.017,5.754-1.017c6.617,0,12.623,3.914,15.295,9.97c0.429,0.974-0.012,2.112-0.985,2.541
		C89.001,56.446,88.736,56.499,88.479,56.499z"/>
	<path fill="#FFFFFF" d="M36.3,77.24c-8.122,0-14.73-6.607-14.73-14.729c0-7.849,6.136-14.312,13.968-14.711
		c1.074-0.047,1.968,0.762,2.022,1.826c0.055,1.062-0.763,1.968-1.826,2.022c-5.782,0.295-10.311,5.068-10.311,10.863
		c0,5.998,4.879,10.876,10.876,10.876c1.064,0,1.926,0.863,1.926,1.928C38.226,76.378,37.364,77.24,36.3,77.24z"/>
	<path fill="#FFFFFF" d="M35.635,51.65c-0.222,0-0.447-0.039-0.667-0.119c-0.998-0.369-1.508-1.477-1.14-2.475
		c3.021-8.188,10.917-13.689,19.648-13.689c7.374,0,14.284,3.947,18.038,10.302c0.543,0.917,0.237,2.098-0.679,2.639
		s-2.099,0.237-2.64-0.679c-3.062-5.187-8.704-8.409-14.72-8.409c-7.125,0-13.568,4.489-16.033,11.17
		C37.155,51.168,36.418,51.65,35.635,51.65z"/>
</g>
</svg>
