<?xml version="1.0" encoding="utf-8"?>
<!-- Generator: Adobe Illustrator 16.0.0, SVG Export Plug-In . SVG Version: 6.00 Build 0)  -->
<!DOCTYPE svg PUBLIC "-//W3C//DTD SVG 1.1//EN" "http://www.w3.org/Graphics/SVG/1.1/DTD/svg11.dtd">
<svg version="1.1" xmlns="http://www.w3.org/2000/svg" xmlns:xlink="http://www.w3.org/1999/xlink" x="0px" y="0px" width="1000px"
	 height="350px" viewBox="-8.604 -36.699 1000 350" enable-background="new -8.604 -36.699 1000 350" xml:space="preserve">
<g id="Layer_1">
	<path fill="#FFFFFF" stroke="#BCBCBC" stroke-miterlimit="10" d="M905.46,642.364c0,2.762-2.238,5-5,5h-886c-2.761,0-5-2.238-5-5
		V51c0-2.761,2.239-5,5-5h886c2.762,0,5,2.239,5,5V642.364z"/>
	<rect x="17.575" y="88.683" fill="#FFFFFF" stroke="#BCBCBC" stroke-miterlimit="10" width="881.489" height="551.136"/>
	<rect x="17.575" y="88.683" fill="#778DBA" width="182.876" height="26.274"/>
	<rect x="203.575" y="114.47" fill="#778DBA" width="695.487" height="26.274"/>
	<rect x="17.575" y="141.092" fill="#E2E2E2" width="182.876" height="38.812"/>
	<rect x="29.416" y="156.057" fill="#818387" width="63.151" height="8.881"/>
	<rect x="77.437" y="97.379" fill="#D7DBE2" width="63.151" height="8.881"/>
	<rect x="216.019" y="123.167" fill="#D7DBE2" width="63.149" height="8.881"/>
	<rect x="302.852" y="123.167" opacity="0.6" fill="#D7DBE2" enable-background="new    " width="81.352" height="8.881"/>
	<rect x="103.75" y="156.057" fill="#818387" width="51.64" height="8.881"/>
	<rect x="765.632" y="98.223" fill="#6D7077" width="61.617" height="6.578"/>
	<rect x="862.332" y="98.223" fill="#6D7077" width="30.812" height="6.578"/>
	<rect x="17.575" y="181.219" fill="#E2E2E2" width="182.876" height="38.812"/>
	<rect x="29.416" y="196.184" fill="#818387" width="54.6" height="8.881"/>
	<rect x="95.527" y="196.184" fill="#818387" width="33.549" height="8.881"/>
	<rect x="220.953" y="160.497" fill="#818387" width="72.031" height="8.881"/>
	<rect x="415.065" y="162.797" fill="#6D7077" width="102.513" height="10.198"/>
	<rect x="542.683" y="162.797" fill="#D9DADB" width="102.514" height="10.198"/>
	<rect x="415.065" y="194.596" fill="#D9DADB" width="447.267" height="8.441"/>
	<rect x="415.065" y="211.917" fill="#D9DADB" width="415.692" height="8.441"/>
	<rect x="415.065" y="229.239" fill="#D9DADB" width="427.208" height="8.441"/>
	<rect x="415.065" y="246.562" fill="#D9DADB" width="223.634" height="8.441"/>
	<rect x="830.757" y="162.797" fill="#D9DADB" width="51.258" height="10.198"/>
	<rect x="17.575" y="221.347" fill="#E2E2E2" width="183.37" height="38.812"/>
	<rect x="203.575" y="185.659" fill="#E2E2E2" width="158.044" height="453.042"/>
	<rect x="29.416" y="236.312" fill="#818387" width="63.151" height="8.881"/>
	<rect x="103.75" y="236.312" fill="#818387" width="47.364" height="8.881"/>
	<polygon fill="#FFFFFF" points="203.575,300.286 17.575,300.286 17.575,261.474 203.575,261.474 213.936,280.879 	"/>
	<rect x="29.416" y="276.439" fill="#818387" width="56.902" height="8.881"/>
	<rect x="97.994" y="276.439" fill="#818387" width="43.417" height="8.881"/>
	<rect x="17.575" y="301.602" fill="#E2E2E2" width="182.876" height="38.812"/>
	<rect x="29.416" y="316.566" fill="#818387" width="47.364" height="8.882"/>
	<rect x="87.305" y="316.567" fill="#818387" width="38.154" height="8.88"/>
	<rect x="17.575" y="341.729" fill="#E2E2E2" width="182.876" height="38.812"/>
	<rect x="29.416" y="356.695" fill="#818387" width="68.579" height="8.88"/>
	<rect x="109.013" y="356.695" fill="#818387" width="43.417" height="8.88"/>
	<rect x="17.575" y="381.856" fill="#E2E2E2" width="182.876" height="38.812"/>
	<rect x="29.416" y="396.822" fill="#818387" width="57.231" height="8.88"/>
	<rect x="97.994" y="396.822" fill="#818387" width="42.923" height="8.88"/>
	<rect x="17.575" y="421.984" fill="#E2E2E2" width="182.876" height="38.812"/>
	<rect x="29.416" y="436.95" fill="#818387" width="63.151" height="8.881"/>
	<rect x="103.75" y="436.95" fill="#818387" width="43.417" height="8.881"/>
	<rect x="17.575" y="462.112" fill="#E2E2E2" width="182.876" height="38.811"/>
	<rect x="29.416" y="477.077" fill="#818387" width="69.894" height="8.881"/>
	<rect x="110.329" y="477.077" fill="#818387" width="43.417" height="8.881"/>
	<rect x="17.575" y="502.239" fill="#E2E2E2" width="182.876" height="38.812"/>
	<rect x="29.416" y="517.204" fill="#818387" width="43.855" height="8.881"/>
	<rect x="87.305" y="517.204" fill="#818387" width="43.417" height="8.881"/>
	<rect x="17.575" y="542.366" fill="#E2E2E2" width="182.876" height="38.812"/>
	<rect x="29.416" y="557.333" fill="#818387" width="65.125" height="8.881"/>
	<rect x="106.929" y="557.333" fill="#818387" width="47.912" height="8.881"/>
	<rect x="17.575" y="582.495" fill="#E2E2E2" width="182.876" height="38.811"/>
	<rect x="29.416" y="597.459" fill="#818387" width="43.855" height="8.881"/>
	<rect x="87.853" y="597.459" fill="#818387" width="52.517" height="8.881"/>
	<rect x="17.575" y="622.622" fill="#E2E2E2" width="182.876" height="17.195"/>
	<rect x="29.416" y="637.586" fill="#818387" width="57.01" height="2.23"/>
	<rect x="95.198" y="637.586" fill="#818387" width="47.143" height="2.23"/>
	<g>
		<circle fill="none" stroke="#6D7077" stroke-miterlimit="10" cx="30.402" cy="127.606" r="4.934"/>
		
			<line fill="none" stroke="#6D7077" stroke-linecap="round" stroke-miterlimit="10" x1="33.892" y1="131.095" x2="37.008" y2="134.211"/>
	</g>
	<circle fill="#68E5A5" cx="751.492" cy="101.622" r="6.797"/>
	<circle fill="#FFC0A5" cx="849.07" cy="101.622" r="6.797"/>
	<circle fill="#FFC0A5" cx="388.426" cy="167.896" r="11.319"/>
	<rect x="415.065" y="293.568" fill="#6D7077" width="102.513" height="10.198"/>
	<rect x="542.683" y="293.568" fill="#D9DADB" width="102.514" height="10.198"/>
	<rect x="415.065" y="325.366" fill="#D9DADB" width="395.847" height="8.441"/>
	<rect x="415.065" y="342.688" fill="#D9DADB" width="434.005" height="8.441"/>
	<rect x="415.065" y="360.01" fill="#D9DADB" width="441.319" height="8.441"/>
	<rect x="415.065" y="377.333" fill="#D9DADB" width="412.185" height="8.44"/>
	<rect x="415.065" y="395.095" fill="#D9DADB" width="421.724" height="8.44"/>
	<rect x="415.065" y="412.417" fill="#D9DADB" width="412.185" height="8.441"/>
	<rect x="415.065" y="429.739" fill="#D9DADB" width="432.249" height="8.441"/>
	<rect x="415.065" y="447.063" fill="#D9DADB" width="193.239" height="8.439"/>
	<rect x="830.757" y="293.568" fill="#D9DADB" width="51.258" height="10.198"/>
	<circle fill="#68EFA7" cx="388.426" cy="298.667" r="11.319"/>
	<rect x="415.065" y="496.176" fill="#6D7077" width="102.513" height="10.199"/>
	<rect x="542.683" y="496.176" fill="#D9DADB" width="102.514" height="10.199"/>
	<rect x="415.065" y="527.977" fill="#D9DADB" width="146.353" height="8.441"/>
	<rect x="830.757" y="496.176" fill="#D9DADB" width="51.258" height="10.199"/>
	<circle fill="#8DC9FF" cx="388.426" cy="501.276" r="11.318"/>
	<rect x="220.953" y="203.037" fill="#818387" width="72.031" height="8.881"/>
	<rect x="220.953" y="240.752" fill="#818387" width="72.031" height="8.881"/>
	<rect x="220.953" y="278.467" fill="#818387" width="72.031" height="8.88"/>
	<rect x="220.953" y="316.183" fill="#818387" width="72.031" height="8.88"/>
	<path fill="#6D7077" d="M415.065,639.817V573.12c0-14.533,11.782-26.312,26.312-26.312h414.323
		c14.531,0,26.312,11.779,26.312,26.312v66.697H415.065z"/>
	<rect x="432.279" y="565.297" fill="#FFB68B" width="102.51" height="10.199"/>
	<rect x="432.279" y="595.124" fill="#68EFA7" width="66.824" height="8.441"/>
	<rect x="695.41" y="595.124" fill="#68C3FF" width="50.051" height="8.441"/>
	<rect x="506.638" y="595.124" fill="#D9DADB" width="178.633" height="8.441"/>
	<rect x="756.177" y="595.124" fill="#D9DADB" width="62.629" height="8.441"/>
	<rect x="432.279" y="610.911" fill="#68EFA7" width="51.256" height="8.441"/>
	<rect x="635.218" y="610.911" fill="#68C3FF" width="56.408" height="8.441"/>
	<rect x="491.291" y="610.911" fill="#D9DADB" width="134.992" height="8.441"/>
	<rect x="700.039" y="610.911" fill="#D9DADB" width="74.037" height="8.441"/>
	<rect x="432.279" y="626.7" fill="#68EFA7" width="59.012" height="8.439"/>
	<rect x="667.205" y="626.7" fill="#68C3FF" width="56.408" height="8.439"/>
	<rect x="499.105" y="626.7" fill="#D9DADB" width="158.865" height="8.439"/>
	<rect x="734.904" y="626.7" fill="#D9DADB" width="126.334" height="8.439"/>
	<circle fill="#FF5567" cx="30.402" cy="66.123" r="4.934"/>
	<circle fill="#FFC767" cx="48.402" cy="66.123" r="4.934"/>
	<circle fill="#5CC97A" cx="66.402" cy="66.123" r="4.934"/>
</g>
<g id="Layer_2">
	<path fill="#FFFFFF" stroke="#BCBCBC" stroke-miterlimit="10" d="M972.94,554.25c0,12.418-10.064,22.485-22.486,22.485H777.931
		c-12.418,0-22.485-10.067-22.485-22.485V174.252c0-12.418,10.066-22.486,22.485-22.486h172.524
		c12.42,0,22.485,10.067,22.485,22.486L972.94,554.25L972.94,554.25z"/>
	<rect x="768.918" y="192.067" fill="#FFFFFF" stroke="#BCBCBC" stroke-miterlimit="10" width="189.172" height="338.549"/>
	<circle fill="#FFFFFF" stroke="#BCBCBC" stroke-miterlimit="10" cx="863.504" cy="554.364" r="15.243"/>
	<path fill="#BCBCBC" d="M888.148,173.423c0,0.82-0.664,1.484-1.483,1.484h-46.32c-0.816,0-1.484-0.664-1.484-1.484l0,0
		c0-0.82,0.668-1.484,1.484-1.484h46.32C887.484,171.939,888.148,172.604,888.148,173.423L888.148,173.423z"/>
	<rect x="768.692" y="192.109" fill="#778DBA" width="189.172" height="35.981"/>
	<rect x="793.749" y="205.5" fill="#D7DBE2" width="28.85" height="6.951"/>
	<rect x="844.333" y="205.5" opacity="0.6" fill="#D7DBE2" enable-background="new    " width="37.891" height="6.951"/>
	<rect x="793.141" y="215.977" fill="#4E5C92" width="140.275" height="9.92"/>
	<rect x="901.566" y="205.5" opacity="0.6" fill="#D7DBE2" enable-background="new    " width="31.849" height="6.951"/>
	<g>
		<line fill="none" stroke="#FFFFFF" stroke-miterlimit="10" x1="777.081" y1="213.374" x2="784.009" y2="213.374"/>
		
			<line fill="none" stroke="#FFFFFF" stroke-linecap="square" stroke-miterlimit="10" x1="777.081" y1="213.374" x2="780.272" y2="210.183"/>
		
			<line fill="none" stroke="#FFFFFF" stroke-linecap="square" stroke-miterlimit="10" x1="777.081" y1="213.374" x2="780.116" y2="216.406"/>
	</g>
	<path fill="#FFFFFF" d="M949.86,213.503c0.684,0,1.238,0.554,1.238,1.236l0,0c0,0.683-0.555,1.236-1.238,1.236l0,0
		c-0.681,0-1.234-0.554-1.234-1.236l0,0C948.625,214.058,949.179,213.503,949.86,213.503L949.86,213.503z"/>
	<path fill="#FFFFFF" d="M945.474,213.503c0.681,0,1.235,0.554,1.235,1.236l0,0c0,0.683-0.555,1.236-1.235,1.236l0,0
		c-0.685,0-1.237-0.554-1.237-1.236l0,0C944.237,214.058,944.79,213.503,945.474,213.503L945.474,213.503z"/>
	<path fill="#FFFFFF" d="M941.086,213.503c0.684,0,1.238,0.554,1.238,1.236l0,0c0,0.683-0.555,1.236-1.238,1.236l0,0
		c-0.682,0-1.235-0.554-1.235-1.236l0,0C939.851,214.058,940.405,213.503,941.086,213.503L941.086,213.503z"/>
	<rect x="804.959" y="240.375" fill="#6D7077" width="115.644" height="8.458"/>
	<rect x="804.959" y="253.144" fill="#D9DADB" width="48.701" height="8.553"/>
	<rect x="804.959" y="271.943" fill="#D9DADB" width="117.818" height="6.609"/>
	<rect x="804.959" y="284.684" fill="#D9DADB" width="131.856" height="6.609"/>
	<rect x="804.959" y="297.423" fill="#D9DADB" width="122.766" height="6.609"/>
	<circle fill="#FFC0A5" cx="785.696" cy="246.768" r="8.502"/>
	<rect x="804.959" y="321.856" fill="#6D7077" width="115.644" height="8.457"/>
	<rect x="804.959" y="334.625" fill="#D9DADB" width="48.701" height="8.553"/>
	<rect x="804.959" y="353.425" fill="#D9DADB" width="117.818" height="6.609"/>
	<rect x="804.959" y="365.298" fill="#D9DADB" width="59.998" height="6.609"/>
	<rect x="845.463" y="394.171" fill="#6D7077" width="59.998" height="6.609"/>
	<rect x="845.463" y="406.961" fill="#D9DADB" width="30.996" height="6.608"/>
	<circle fill="#8DC9FF" cx="785.696" cy="330.315" r="8.502"/>
	<rect x="804.959" y="446.629" fill="#6D7077" width="115.644" height="8.459"/>
	<rect x="804.959" y="459.398" fill="#D9DADB" width="48.701" height="8.554"/>
	<rect x="804.959" y="478.199" fill="#D9DADB" width="117.818" height="6.609"/>
	<rect x="804.959" y="501.945" fill="#D9DADB" width="96.051" height="6.609"/>
	<rect x="804.959" y="490.073" fill="#D9DADB" width="77.264" height="6.608"/>
	<circle fill="#68EFA7" cx="785.696" cy="455.088" r="8.502"/>
	<rect x="804.959" y="382.052" fill="none" stroke="#D9DADB" stroke-miterlimit="10" width="124.992" height="43.473"/>
	<g>
		<polygon fill="none" stroke="#363838" stroke-miterlimit="10" points="835.459,418.25 814.124,418.25 814.124,389.163 
			829.769,389.163 835.459,394.851 		"/>
		<polyline fill="none" stroke="#363838" stroke-miterlimit="10" points="829.769,389.163 829.769,394.851 835.459,394.851 		"/>
	</g>
</g>
</svg>
