<?xml version="1.0" encoding="utf-8"?>
<!-- Generator: Adobe Illustrator 16.0.0, SVG Export Plug-In . SVG Version: 6.00 Build 0)  -->
<!DOCTYPE svg PUBLIC "-//W3C//DTD SVG 1.1//EN" "http://www.w3.org/Graphics/SVG/1.1/DTD/svg11.dtd">
<svg version="1.1" id="Layer_2" xmlns="http://www.w3.org/2000/svg" xmlns:xlink="http://www.w3.org/1999/xlink" x="0px" y="0px"
	 width="120px" height="120px" viewBox="0 0 120 120" enable-background="new 0 0 120 120" xml:space="preserve">
<path fill="#2D2F33" d="M60,109.461c-23.15,0-41.984-18.834-41.984-41.984c0-23.15,18.834-41.984,41.984-41.984
	c23.15,0,41.984,18.834,41.984,41.984C101.984,90.627,83.15,109.461,60,109.461z M60,26.792c-22.433,0-40.684,18.251-40.684,40.684
	c0,22.434,18.251,40.684,40.684,40.684c22.434,0,40.684-18.25,40.684-40.684C100.684,45.043,82.434,26.792,60,26.792z"/>
<path fill="#2D2F33" d="M60,103.794c-20.025,0-36.317-16.292-36.317-36.317S39.975,31.16,60,31.16s36.317,16.292,36.317,36.317
	S80.025,103.794,60,103.794z M60,32.459c-19.309,0-35.017,15.708-35.017,35.017S40.691,102.493,60,102.493
	s35.017-15.708,35.017-35.017S79.309,32.459,60,32.459z"/>
<path fill="#2D2F33" d="M53.046,89.869c-3.553,0-6.893-1.384-9.404-3.896l-1.639-1.64c-5.185-5.185-5.185-13.622,0-18.81
	l2.695-2.694l20.448,20.447l-2.695,2.696C59.938,88.485,56.599,89.869,53.046,89.869z M44.698,64.668l-1.776,1.776
	c-4.678,4.68-4.678,12.292,0,16.97l1.639,1.64c2.267,2.267,5.28,3.516,8.485,3.516c3.205,0,6.219-1.249,8.485-3.516l1.777-1.776
	L44.698,64.668z"/>
<path fill="#2D2F33" d="M75.408,73.016L54.959,52.569l2.696-2.696c2.512-2.512,5.852-3.896,9.404-3.896s6.893,1.383,9.405,3.896
	l1.639,1.64c2.512,2.511,3.896,5.851,3.896,9.404c0,3.553-1.384,6.893-3.896,9.405L75.408,73.016z M56.798,52.569l18.61,18.609
	l1.775-1.776c2.267-2.266,3.516-5.279,3.516-8.485s-1.249-6.219-3.516-8.485l-1.639-1.64c-2.267-2.267-5.279-3.515-8.485-3.515
	c-3.205,0-6.219,1.248-8.485,3.515L56.798,52.569z"/>
<path fill="#2D2F33" d="M51.443,71.414l-3.603-3.603l6.051-6.051c0.962-0.961,2.64-0.961,3.602,0c0.993,0.995,0.993,2.611,0,3.604
	L51.443,71.414z M49.68,67.812l1.764,1.765l5.131-5.131c0.486-0.486,0.486-1.278,0-1.766c-0.47-0.469-1.292-0.47-1.763,0.001
	L49.68,67.812z"/>
<path fill="#2D2F33" d="M60.166,80.135l-3.603-3.602l6.05-6.051c0.962-0.96,2.639-0.962,3.603,0
	c0.481,0.481,0.747,1.122,0.747,1.803c-0.001,0.68-0.266,1.319-0.747,1.801L60.166,80.135z M58.401,76.533l1.764,1.764l5.129-5.131
	c0.236-0.235,0.366-0.549,0.366-0.882c0.001-0.333-0.13-0.646-0.365-0.882c-0.473-0.474-1.294-0.472-1.764,0L58.401,76.533z"/>
<rect x="37.47" y="81.902" transform="matrix(0.7067 0.7075 -0.7075 0.7067 73.1695 -1.2729)" fill="#2D2F33" width="1.3" height="11.437"/>
<rect x="39.706" y="84.138" transform="matrix(0.7067 0.7075 -0.7075 0.7067 75.4069 -2.1989)" fill="#2D2F33" width="1.3" height="11.438"/>
<rect x="79.365" y="39.632" transform="matrix(0.7075 0.7067 -0.7067 0.7075 55.7217 -43.174)" fill="#2D2F33" width="1.3" height="12.187"/>
<rect x="81.6" y="41.867" transform="matrix(0.7075 0.7067 -0.7067 0.7075 57.9552 -44.0996)" fill="#2D2F33" width="1.3" height="12.187"/>
<polygon fill="#2D2F33" points="65.149,26.143 63.849,26.143 63.849,19.112 56.145,19.112 56.145,26.143 54.845,26.143 
	54.845,17.812 65.149,17.812 "/>
<path fill="#2D2F33" d="M64.997,20.167l-0.996-0.834c0.782-0.935,1.213-2.124,1.213-3.346c0-2.877-2.34-5.218-5.217-5.218
	s-5.218,2.341-5.218,5.218c0,1.167,0.376,2.27,1.089,3.19l-1.027,0.796c-0.891-1.15-1.361-2.528-1.361-3.986
	c0-3.594,2.924-6.518,6.518-6.518s6.518,2.924,6.518,6.518C66.515,17.514,65.976,18.999,64.997,20.167z"/>
<polygon fill="#2D2F33" points="31.687,37.079 28.113,32.082 35.356,26.938 38.928,31.933 37.87,32.688 35.052,28.749 
	29.929,32.386 32.745,36.323 "/>
<path fill="#2D2F33" d="M26.625,34.732l-4.564-6.428l11.728-8.327l4.564,6.428L26.625,34.732z M23.874,28.612l3.059,4.308
	l9.607-6.823l-3.059-4.308L23.874,28.612z"/>
<polygon fill="#2D2F33" points="88.115,37.079 87.059,36.323 89.873,32.386 84.751,28.749 81.933,32.688 80.876,31.933 
	84.446,26.938 91.689,32.082 "/>
<path fill="#2D2F33" d="M93.177,34.732L81.45,26.405l4.564-6.428l11.728,8.327L93.177,34.732z M83.263,26.097l9.607,6.823
	l3.06-4.308l-9.608-6.822L83.263,26.097z"/>
<path fill="#2D2F33" d="M55.19,25.004c-3.366-1.782-5.458-5.252-5.458-9.057c0-5.646,4.594-10.24,10.24-10.24
	s10.241,4.594,10.241,10.24c0,3.781-2.072,7.242-5.407,9.03l-0.615-1.146c2.913-1.562,4.722-4.583,4.722-7.885
	c0-4.93-4.011-8.94-8.94-8.94s-8.94,4.011-8.94,8.94c0,3.322,1.826,6.352,4.766,7.908L55.19,25.004z"/>
</svg>
